{
    "Companies": [
        {
            "companyID": "1e94fee2-e8ca-4305-b21c-850067161d94",
            "companyName": "World Truckers",
            "companyDescription": "Global Trucking Company for Rednecks",
            "country_code": "US",
            "numberOfEmployees": 1897,
            "revenue": 28560000,
            "currency_code": "USD"
        },
        {
            "companyID": "2e94fee2-e8ca-4305-b21c-850067161d94",
            "companyName": "Global Carrot Exports",
            "companyDescription": "Rabbit-founded Vegetable Service with roots back to 1992",
            "country_code": "CA",
            "numberOfEmployees": 22711,
            "revenue": 39570000,
            "currency_code": "CAD"
        },
        {
            "companyID": "3e94fee2-e8ca-4305-b21c-850067161d94",
            "companyName": "Runaway Trailers",
            "companyDescription": "Island-based Trailer Service with limited liability",
            "country_code": "GB",
            "numberOfEmployees": 1733,
            "revenue": 2034000,
            "currency_code": "GBP"
        },
        {
            "companyID": "4e94fee2-e8ca-4305-b21c-850067161d94",
            "companyName": "Carryall Consumables",
            "companyDescription": "Fill your shopping basket, while filling our coffers",
            "country_code": "DE",
            "numberOfEmployees": 44600,
            "revenue": 207900400,
            "currency_code": "EUR"
        },
        {
            "companyID": "5e94fee2-e8ca-4305-b21c-850067161d94",
            "companyName": "Vive'Le'Grenouille",
            "companyDescription": "à la mode french. Coup de foudre. L’esprit de l’escalier",
            "country_code": "FR",
            "numberOfEmployees": 207,
            "revenue": 206800,
            "currency_code": "EUR"
        },
        {
            "companyID": "6e94fee2-e8ca-4305-b21c-850067161d94",
            "companyName": "Selvkøb Færdigfrys",
            "companyDescription": "Billigt, frossent og al for gammel mad til al for høje priser",
            "country_code": "DK",
            "numberOfEmployees": 144,
            "revenue": 1450000,
            "currency_code": "DKK"
        }
    ]
}