{
    "Customers": [
        {
            "customerID": "1f94fee2-e8ca-4305-b21c-850067161d94",
            "firstName": "George",
            "lastName": "York",
            "country_code": "US",
            "birthdate": "1966-06-10",
            "customerImage": "https://designobserver.com/media/images/mondrian/40249-The-Observatory-Episode-126_m.jpg"
        },
        {
            "customerID": "2f94fee2-e8ca-4305-b21c-850067161d94",
            "firstName": "Pedro",
            "lastName": "Gonsalvez",
            "country_code": "MX",
            "birthdate": "1981-08-11",
            "customerImage": "https://i.pinimg.com/280x280_RS/fa/65/bd/fa65bdd2e3b2c5e36ab5c33c9f89cc19.jpg"
        },
        {
            "customerID": "3f94fee2-e8ca-4305-b21c-850067161d94",
            "firstName": "Tila",
            "lastName": "Tussaud",
            "country_code": "FR",
            "birthdate": "2000-01-21",
            "customerImage": "https://is2-ssl.mzstatic.com/image/thumb/Purple123/v4/7d/ab/b3/7dabb32a-9c7b-e0ce-52fc-3a58ba426070/source/256x256bb.jpg"
        },
        {
            "customerID": "4f94fee2-e8ca-4305-b21c-850067161d94",
            "firstName": "Marko",
            "lastName": "Mashskouvitz",
            "country_code": "RU",
            "birthdate": "1977-03-03",
            "customerImage": "https://www.arcadequartermaster.com/snk/adk/pic_lee.png"
        },
        {
            "customerID": "5f94fee2-e8ca-4305-b21c-850067161d94",
            "firstName": "Jan",
            "lastName": "Bonnevig",
            "country_code": "DK",
            "birthdate": "1969-04-01",
            "customerImage": "https://designobserver.com/media/images/mondrian/40219-Ralph-Waldo-Emerson-sq_m.jpg"
        }
    ]
}