{
	"Products": [
	  {
		"productID": "1e94fee2-e8ca-4305-b21c-850067161d11",
		"title": "Fast Delivery",
		"description": "Unscathed Delivery across Ground, Lower Ground and Upper Ground. Mostly Safe from harm and few percentages hit mines during long hauls",
		"cost": 1100,
		"currency_code": "USD",
		"company": "1e94fee2-e8ca-4305-b21c-850067161d94",
		"minimumPurchaseNumber": 1,
		"weight": 10200,
		"discountLimit": 5,
		"discountPercentage": 20,
		"DeliveryTime": 2,
		"productImage": "https://image.freepik.com/free-vector/smiley-delivery-man-scooter_23-2147674795.jpg"
	  },
	  {
		"productID": "1e94fee2-e8ca-4305-b21c-850067161d12",
		"title": "Secret Supply",
		"description": "Need to get something secret from A to B without C knowing? This is just the courier service for you. We can keep a secret a secret, but can't promise that we won't smoke it if it smokes!",
		"cost": 18900,
		"currency_code": "USD",
		"company": "1e94fee2-e8ca-4305-b21c-850067161d94",
		"minimumPurchaseNumber": 1,
		"weight": 10100,
		"discountLimit": 10,
		"discountPercentage": 15,
		"DeliveryTime": 5,
		"productImage": "https://www.hmongamer.org/wp-content/uploads/2019/03/delivery-300x231.png"
	  },
	  {
		"productID": "2e94fee2-e8ca-4305-b21c-850067161d11",
		"title": "Fresh Carrots",
		"description": "You know carrots are good for you and so do we, so let's make business!",
		"cost": 900,
		"currency_code": "CAD",
		"company": "2e94fee2-e8ca-4305-b21c-850067161d94",
		"minimumPurchaseNumber": 100,
		"weight": 44,
		"discountLimit": 1000,
		"discountPercentage": 5.5,
		"DeliveryTime": 1,
		"productImage": "https://5.imimg.com/data5/CY/UQ/MY-7627577/fresh-carrot-250x250.jpg"
	  },
	  {
		"productID": "2e94fee2-e8ca-4305-b21c-850067161d12",
		"title": "Semi-Fresh Carrots",
		"description": "You know carrots are good for you - even the not so fresh ones - and so do we, so let's make business!",
		"cost": 700,
		"currency_code": "CAD",
		"company": "2e94fee2-e8ca-4305-b21c-850067161d94",
		"minimumPurchaseNumber": 100,
		"weight": 44,
		"discountLimit": 1000,
		"discountPercentage": 7.5,
		"DeliveryTime": 1,
		"productImage": "https://www.leekgarden.com/wp-content/uploads/2017/12/Frozen-Carrots-How-to-Tell-If-Carrots-Are-Bad.jpg"
	  },
	  {
		"productID": "2e94fee2-e8ca-4305-b21c-850067161d13",
		"title": "Quasi-Fresh Carrots",
		"description": "You know carrots are good for you and so do we, so let's make business! (Just don't let your customers see them before selling them)",
		"cost": 500,
		"currency_code": "CAD",
		"company": "2e94fee2-e8ca-4305-b21c-850067161d94",
		"minimumPurchaseNumber": 100,
		"weight": 44,
		"discountLimit": 1000,
		"discountPercentage": 9.5,
		"DeliveryTime": 1,
		"productImage": "https://thumbs.dreamstime.com/t/rotten-carrot-isolated-white-background-88674700.jpg"
	  },
	  {
		"productID": "2e94fee2-e8ca-4305-b21c-850067161d14",
		"title": "Rotten Carrots",
		"description": "You know carrots are good for you and no, these are not, but let's make business anyway! (Just don't let your customers see or smell them before selling them)",
		"cost": 250,
		"currency_code": "CAD",
		"company": "2e94fee2-e8ca-4305-b21c-850067161d94",
		"minimumPurchaseNumber": 100,
		"weight": 44,
		"discountLimit": 1000,
		"discountPercentage": 18.5,
		"DeliveryTime": 2,
		"productImage": "https://thumbs.dreamstime.com/t/de-rotte-wortel-bited-door-insect-op-witte-achtergrond-60883483.jpg"
	  },
	  {
		"productID": "3e94fee2-e8ca-4305-b21c-850067161d11",
		"title": "Small Trailer",
		"description": "Want to Haul Ass again and again with a load - Depend on us covering your rear!",
		"cost": 1100,
		"currency_code": "GBP",
		"company": "3e94fee2-e8ca-4305-b21c-850067161d94",
		"minimumPurchaseNumber": 1,
		"weight": 450,
		"discountLimit": 5,
		"discountPercentage": 10,
		"DeliveryTime": 7,
		"productImage": "http://www.saferwholesale.net/images/ARM/ARM-40x50Cargo-Trailer-01.jpg"
	  },
	  {
		"productID": "3e94fee2-e8ca-4305-b21c-850067161d12",
		"title": "Big Trailer",
		"description": "Want to Haul Ass again and again with a huge load - Depend on us covering your rear, even though it might be a bit slow!",
		"cost": 2600,
		"currency_code": "GBP",
		"company": "3e94fee2-e8ca-4305-b21c-850067161d94",
		"minimumPurchaseNumber": 1,
		"weight": 750,
		"discountLimit": 5,
		"discountPercentage": 15,
		"DeliveryTime": 10,
		"productImage": "https://images-na.ssl-images-amazon.com/images/I/41MnWDSPIML.jpg"
	  },
	  {
		"productID": "3e94fee2-e8ca-4305-b21c-850067161d13",
		"title": "Humangeous Trailer",
		"description": "Also known as \"Haul Hogan\"... Want to Haul Ass again and again, blocking every road you can find? Depend on us covering your rear and the rest of the neighbourhood, even though it might take you years to get anywhere!",
		"cost": 4900,
		"currency_code": "GBP",
		"company": "3e94fee2-e8ca-4305-b21c-850067161d94",
		"minimumPurchaseNumber": 1,
		"weight": 1850,
		"discountLimit": 10,
		"discountPercentage": 25,
		"DeliveryTime": 25,
		"productImage": "https://thumbor.forbes.com/thumbor/960x0/https%3A%2F%2Fblogs-images.forbes.com%2Fdalebuss%2Ffiles%2F2018%2F09%2FAIRSTREAM-TRAILER.jpg"
	  },
	  {
		"productID": "4e94fee2-e8ca-4305-b21c-850067161d11",
		"title": "Milk",
		"description": "Everyone needs it, so we stock it. Get going on the Milky Way!",
		"cost": 1,
		"currency_code": "EUR",
		"company": "4e94fee2-e8ca-4305-b21c-850067161d94",
		"minimumPurchaseNumber": 1,
		"weight": 1,
		"discountLimit": 10,
		"discountPercentage": 0.5,
		"DeliveryTime": 1,
		"productImage": "https://www.wur.nl/upload_mm/7/1/5/f793fd01-3c5c-4667-b57c-155499862c62_shutterstock_568076731_f1f6dd9b_490x330.jpg"
	  },
	  {
		"productID": "4e94fee2-e8ca-4305-b21c-850067161d12",
		"title": "Bread",
		"description": "Give us today our daily bread and so shall we!",
		"cost": 3,
		"currency_code": "EUR",
		"company": "4e94fee2-e8ca-4305-b21c-850067161d94",
		"minimumPurchaseNumber": 1,
		"weight": 1,
		"discountLimit": 25,
		"discountPercentage": 5.5,
		"DeliveryTime": 1,
		"productImage": "https://www.browneyedbaker.com/wp-content/uploads/2016/05/white-bread-51-550.jpg"
	  },
	  {
		"productID": "4e94fee2-e8ca-4305-b21c-850067161d13",
		"title": "Peanutbutter",
		"description": "Because Germany needs more than Nutella and Kinder!",
		"cost": 5,
		"currency_code": "EUR",
		"company": "4e94fee2-e8ca-4305-b21c-850067161d94",
		"minimumPurchaseNumber": 1,
		"weight": 2,
		"discountLimit": 10,
		"discountPercentage": 2.5,
		"DeliveryTime": 2,
		"productImage": "https://lisbethtordendahl.dk/wp-content/uploads/2017/07/Peanutbutter.jpg"
	  },
	  {
		"productID": "4e94fee2-e8ca-4305-b21c-850067161d14",
		"title": "Whipped Cream",
		"description": "Support your local stripper - and make sure they have something to cover themselves with!",
		"cost": 8,
		"currency_code": "EUR",
		"company": "4e94fee2-e8ca-4305-b21c-850067161d94",
		"minimumPurchaseNumber": 3,
		"weight": 6,
		"discountLimit": 30,
		"discountPercentage": 10.5,
		"DeliveryTime": 1,
		"productImage": "https://sugarspunrun.com/wp-content/uploads/2017/10/Homemade-Whipped-Cream-Recipe-1-of-1-11-500x500.jpg"
	  },
	  {
		"productID": "4e94fee2-e8ca-4305-b21c-850067161d15",
		"title": "Butter",
		"description": "When your colestoral isnt high enough and your heart is still running like a clock!",
		"cost": 8,
		"currency_code": "EUR",
		"company": "4e94fee2-e8ca-4305-b21c-850067161d94",
		"minimumPurchaseNumber": 3,
		"weight": 6,
		"discountLimit": 30,
		"discountPercentage": 10.5,
		"DeliveryTime": 1,
		"productImage": "https://cdn.shopify.com/s/files/1/1349/1089/products/butter_300x300.jpg"
	  },
	  {
		"productID": "4e94fee2-e8ca-4305-b21c-850067161d16",
		"title": "Light Alcohol",
		"description": "When you want your friends to drive in somewhat safety home afterwards!",
		"cost": 11,
		"currency_code": "EUR",
		"company": "4e94fee2-e8ca-4305-b21c-850067161d94",
		"minimumPurchaseNumber": 1,
		"weight": 1,
		"discountLimit": 25,
		"discountPercentage": 12,
		"DeliveryTime": 1,
		"productImage": "https://images-na.ssl-images-amazon.com/images/I/81EuymZMBNL._SX342_.jpg"
	  },
	  {
		"productID": "4e94fee2-e8ca-4305-b21c-850067161d17",
		"title": "Strong Alcohol",
		"description": "When you need to get through life and your wife! For Children see our forbidden substances department...",
		"cost": 19,
		"currency_code": "EUR",
		"company": "4e94fee2-e8ca-4305-b21c-850067161d94",
		"minimumPurchaseNumber": 1,
		"weight": 1,
		"discountLimit": 15,
		"discountPercentage": 13.5,
		"DeliveryTime": 2,
		"productImage": "https://chilledmagazine.com/wp-content/uploads/2014/09/StrongSpiritsFeatImg.jpg"
	  },
	  {
		"productID": "5e94fee2-e8ca-4305-b21c-850067161d11",
		"title": "Frogs",
		"description": "Our only Export with a language anyone can understand!",
		"cost": 25,
		"currency_code": "EUR",
		"company": "5e94fee2-e8ca-4305-b21c-850067161d94",
		"minimumPurchaseNumber": 10,
		"weight": 6,
		"discountLimit": 100,
		"discountPercentage": 10.8,
		"DeliveryTime": 4,
		"productImage": "https://www.petmd.com/sites/default/files/frog-care-101.jpg"
	  },
	  {
		"productID": "6e94fee2-e8ca-4305-b21c-850067161d11",
		"title": "Dybfrossen Kalvenæse bouillon",
		"description": "Everything gets better when you freeze it - Just heat and eat!",
		"cost": 65,
		"currency_code": "DKK",
		"company": "6e94fee2-e8ca-4305-b21c-850067161d94",
		"minimumPurchaseNumber": 10,
		"weight": 4,
		"discountLimit": 100,
		"discountPercentage": 20,
		"DeliveryTime": 3,
		"productImage": "https://www.writingofriding.com/wp-content/uploads/2017/11/bull-nose-ring.jpg"
	  },
	  {
		"productID": "6e94fee2-e8ca-4305-b21c-850067161d12",
		"title": "Dybfrossen Æsel Lever Mix",
		"description": "Everything gets better when you freeze it - Just heat and eat!",
		"cost": 35,
		"currency_code": "DKK",
		"company": "6e94fee2-e8ca-4305-b21c-850067161d94",
		"minimumPurchaseNumber": 1,
		"weight": 2,
		"discountLimit": 25,
		"discountPercentage": 10,
		"DeliveryTime": 4,
		"productImage": "https://i.pinimg.com/originals/b8/ad/07/b8ad071f790cbab6afbde32c156f24a1.jpg"
	  },
	  {
		"productID": "6e94fee2-e8ca-4305-b21c-850067161d13",
		"title": "Dybfrossen Hestelevepostej på Dåse",
		"description": "Everything gets better when you freeze it - Just heat and eat!",
		"cost": 25,
		"currency_code": "DKK",
		"company": "6e94fee2-e8ca-4305-b21c-850067161d94",
		"minimumPurchaseNumber": 1,
		"weight": 8,
		"discountLimit": 50,
		"discountPercentage": 12.5,
		"DeliveryTime": 5,
		"productImage": "https://www.hurtigmums.dk/wp-content/uploads/2017/01/Leverpostej.jpg"
	  }
	],
	"ProductCollectionStats": {
		"Counts": {
			"Total": 20

		}
	}	
}
